<svg width="24" height="24" viewBox="0 0 24 24" fill="none" xmlns="http://www.w3.org/2000/svg">
<g clip-path="url(#clip0)">
<path d="M18.6165 19.2286C17.3637 19.9578 15.9328 20.3416 14.4785 20.3416C9.92103 20.3416 6.21203 16.634 6.21203 12.0779C6.21203 7.52181 9.91966 3.81417 14.4785 3.81417C15.9328 3.81417 17.3624 4.19933 18.6179 4.92578C19.2758 5.30682 20.1119 5.0834 20.4916 4.42686C20.8713 3.77305 20.6478 2.93283 19.9927 2.55453C18.3204 1.58548 16.4139 1.07422 14.4785 1.07422C8.40919 1.07422 3.4707 6.01134 3.4707 12.0793C3.4707 18.1472 8.40919 23.0843 14.4785 23.0843C16.4166 23.0843 18.3246 22.5717 19.994 21.5971C20.6478 21.2175 20.8699 20.3772 20.4902 19.7234C20.1105 19.0696 19.2717 18.8476 18.6165 19.2286Z" fill="white"/>
<path d="M13.1914 7.8125H2.22613C1.46952 7.8125 0.855469 8.42519 0.855469 9.18316C0.855469 9.94114 1.46952 10.5538 2.22613 10.5538H13.1914C13.948 10.5538 14.5621 9.94114 14.5621 9.18316C14.5621 8.42519 13.948 7.8125 13.1914 7.8125Z" fill="white"/>
<path d="M13.1914 13.2949H2.22613C1.46952 13.2949 0.855469 13.9076 0.855469 14.6656C0.855469 15.4236 1.46952 16.0362 2.22613 16.0362H13.1914C13.948 16.0362 14.5621 15.4236 14.5621 14.6656C14.5621 13.9076 13.948 13.2949 13.1914 13.2949Z" fill="white"/>
</g>
<defs>
<clipPath id="clip0">
<rect width="22.2857" height="22.2857" fill="white" transform="translate(0.855469 0.857422)"/>
</clipPath>
</defs>
</svg>
