<svg width="10" height="10" viewBox="0 0 10 10" fill="none" xmlns="http://www.w3.org/2000/svg">
<g clip-path="url(#clip0)">
<path d="M4.72562 2.41898L0.108013 7.03659C-0.0396239 7.18945 -0.0353851 7.43305 0.117483 7.58069C0.266608 7.72472 0.503012 7.72472 0.652115 7.58069L4.99767 3.23513L9.34322 7.58069C9.49347 7.73092 9.73707 7.73092 9.88733 7.58069C10.0376 7.43041 10.0376 7.18684 9.88733 7.03659L5.26972 2.41898C5.11944 2.26875 4.87587 2.26875 4.72562 2.41898Z" fill="#2074C2"/>
</g>
<defs>
<clipPath id="clip0">
<rect width="10" height="10" fill="white" transform="translate(0 10) rotate(-90)"/>
</clipPath>
</defs>
</svg>
