<svg width="20" height="11" viewBox="0 0 20 11" fill="none" xmlns="http://www.w3.org/2000/svg">
<path d="M10.5488 10.5488L19.784 1.31355C20.0792 1.00781 20.0708 0.520619 19.765 0.225345C19.4668 -0.0627142 18.994 -0.0627142 18.6958 0.225345L10.0047 8.91645L1.31355 0.225345C1.01305 -0.075115 0.525855 -0.075115 0.22535 0.225345C-0.0751098 0.525895 -0.0751098 1.01304 0.22535 1.31355L9.46056 10.5488C9.76111 10.8492 10.2483 10.8492 10.5488 10.5488Z" fill="#111111"/>
</svg>
