<svg width="20" height="20" viewBox="0 0 20 20" fill="none" xmlns="http://www.w3.org/2000/svg">
<g clip-path="url(#clip0)">
<path d="M19.2991 5.09611C19.2068 4.92604 19.0408 4.80832 18.8498 4.77739C13.4818 3.90832 6.52264 3.76267 1.13545 4.78024C0.944372 4.81633 0.780948 4.93932 0.693417 5.11298C-0.186351 6.85783 -0.281617 13.2283 0.71279 14.9187C0.805751 15.0768 0.963471 15.186 1.14412 15.2175C6.58932 16.167 13.4088 16.1675 18.8573 15.2175C19.0453 15.1848 19.2081 15.0678 19.2992 14.9001C20.2337 13.179 20.2336 6.81709 19.2991 5.09611ZM18.313 14.042C13.2848 14.868 7.024 14.9199 1.67962 14.0406C1.07499 12.3809 1.13756 7.64272 1.69993 5.94779C6.8382 5.04314 13.2048 5.17719 18.3145 5.95846C18.8937 7.61968 18.8953 12.3802 18.313 14.042Z" fill="#2074C2"/>
<path d="M17.9412 6.43115C17.6972 6.18707 17.3015 6.18707 17.0574 6.43115L16.5113 6.97731C12.1862 6.46946 7.71028 6.40435 3.45846 6.94704L2.94253 6.43111C2.69849 6.18703 2.30278 6.18703 2.05874 6.43111C1.81466 6.67515 1.81466 7.07086 2.05874 7.3149L2.61158 7.86774C2.47585 9.15833 2.45882 10.8153 2.59041 12.1489L2.05874 12.6806C1.66389 13.0755 1.94894 13.7474 2.50061 13.7474C2.66056 13.7474 2.82047 13.6864 2.94249 13.5644L3.47389 13.033C7.72309 13.5547 12.1054 13.5757 16.526 13.033L17.0574 13.5644C17.1794 13.6864 17.3393 13.7474 17.4992 13.7474C18.051 13.7474 18.3359 13.0754 17.9411 12.6806L17.3989 12.1384C17.5328 10.827 17.533 9.17021 17.3989 7.85716L17.9411 7.3149C18.1853 7.0709 18.1853 6.67519 17.9412 6.43115ZM16.1742 11.8169C12.0523 12.3047 7.94022 12.3049 3.81491 11.8156C3.71883 10.6744 3.73223 9.27785 3.83847 8.15889C7.94905 7.65815 12.1436 7.73767 16.1758 8.19646C16.2746 9.31738 16.2743 10.6958 16.1742 11.8169Z" fill="#2074C2"/>
</g>
<defs>
<clipPath id="clip0">
<rect width="20" height="20" fill="white"/>
</clipPath>
</defs>
</svg>
