<svg width="17" height="17" viewBox="0 0 17 17" fill="none" xmlns="http://www.w3.org/2000/svg">
<path d="M0.5 8.5C0.5 4.08905 4.08905 0.5 8.5 0.5C12.9109 0.5 16.5 4.08905 16.5 8.5C16.5 12.9109 12.9109 16.5 8.5 16.5C4.08905 16.5 0.5 12.9109 0.5 8.5Z" fill="#F1F7FA" stroke="#B9CAD4"/>
<path d="M9.2076 12.7493C9.2076 13.1405 8.89048 13.4576 8.49931 13.4576C8.10813 13.4576 7.79102 13.1405 7.79102 12.7493C7.79102 12.3581 8.10813 12.041 8.49931 12.041C8.89048 12.041 9.2076 12.3581 9.2076 12.7493Z" fill="#B9CAD4"/>
<path d="M9.62125 8.95542C9.37054 9.07085 9.20829 9.32377 9.20829 9.59938V9.9174C9.20829 10.3083 8.89169 10.6257 8.5 10.6257C8.10831 10.6257 7.79171 10.3083 7.79171 9.9174V9.59938C7.79171 8.77267 8.27757 8.01484 9.02775 7.66841C9.74953 7.33625 10.2708 6.45429 10.2708 6.02148C10.2708 5.04549 9.47677 4.25069 8.5 4.25069C7.52323 4.25069 6.72921 5.04549 6.72921 6.02148C6.72921 6.41253 6.41248 6.7299 6.02079 6.7299C5.6291 6.7299 5.3125 6.41253 5.3125 6.02148C5.3125 4.26418 6.74257 2.83398 8.5 2.83398C10.2574 2.83398 11.6875 4.26418 11.6875 6.02148C11.6875 6.97854 10.8573 8.38526 9.62125 8.95542V8.95542Z" fill="#B9CAD4"/>
</svg>
