<svg width="158" height="158" viewBox="0 0 158 158" fill="none" xmlns="http://www.w3.org/2000/svg">
<g filter="url(#filter0_d)">
<path d="M79.0027 8C55.4767 8 36.3359 27.1408 36.3359 50.6668C36.3359 57.7293 38.1017 64.7318 41.4584 70.9427L76.6694 134.625C77.1382 135.474 78.0314 136 79.0027 136C79.9739 136 80.8672 135.474 81.3359 134.625L116.56 70.9217C119.904 64.7318 121.669 57.729 121.669 50.6665C121.669 27.1408 102.529 8 79.0027 8ZM79.0027 72C67.2397 72 57.6694 62.4298 57.6694 50.6668C57.6694 38.9038 67.2397 29.3335 79.0027 29.3335C90.7657 29.3335 100.336 38.9038 100.336 50.6668C100.336 62.4298 90.7657 72 79.0027 72Z" fill="#2074C2"/>
</g>
<defs>
<filter id="filter0_d" x="0" y="0" width="158" height="158" filterUnits="userSpaceOnUse" color-interpolation-filters="sRGB">
<feFlood flood-opacity="0" result="BackgroundImageFix"/>
<feColorMatrix in="SourceAlpha" type="matrix" values="0 0 0 0 0 0 0 0 0 0 0 0 0 0 0 0 0 0 127 0"/>
<feOffset dy="7"/>
<feGaussianBlur stdDeviation="7.5"/>
<feColorMatrix type="matrix" values="0 0 0 0 0 0 0 0 0 0 0 0 0 0 0 0 0 0 0.25 0"/>
<feBlend mode="normal" in2="BackgroundImageFix" result="effect1_dropShadow"/>
<feBlend mode="normal" in="SourceGraphic" in2="effect1_dropShadow" result="shape"/>
</filter>
</defs>
</svg>
