<svg width="504" height="154" viewBox="0 0 504 154" fill="none" xmlns="http://www.w3.org/2000/svg">
<path d="M184.801 149.4L210.401 5.40039H250.401L225.601 149.4H184.801Z" fill="#3C58BF"/>
<path d="M184.801 149.4L217.601 5.40039H250.401L225.601 149.4H184.801Z" fill="#293688"/>
<path d="M370.4 6.9996C362.4 3.7996 349.6 0.599609 333.6 0.599609C293.6 0.599609 264.8 20.5996 264.8 49.3996C264.8 70.9996 284.8 82.1996 300.8 89.3996C316.8 96.5996 321.6 101.4 321.6 107.8C321.6 117.4 308.8 122.2 297.6 122.2C281.6 122.2 272.8 119.8 259.2 114.2L253.6 111.8L248 144.6C257.6 148.6 275.2 152.6 293.6 152.6C336 152.6 364 132.6 364 102.2C364 85.3996 353.6 72.5996 329.6 62.1996C315.2 54.9996 306.4 50.9996 306.4 43.7996C306.4 37.3996 313.6 30.9996 329.6 30.9996C343.2 30.9996 352.8 33.3996 360 36.5996L364 38.1996L370.4 6.9996Z" fill="#3C58BF"/>
<path d="M370.4 6.9996C362.4 3.7996 349.6 0.599609 333.6 0.599609C293.6 0.599609 272 20.5996 272 49.3996C272 70.9996 284.8 82.1996 300.8 89.3996C316.8 96.5996 321.6 101.4 321.6 107.8C321.6 117.4 308.8 122.2 297.6 122.2C281.6 122.2 272.8 119.8 259.2 114.2L253.6 111.8L248 144.6C257.6 148.6 275.2 152.6 293.6 152.6C336 152.6 364 132.6 364 102.2C364 85.3996 353.6 72.5996 329.6 62.1996C315.2 54.9996 306.4 50.9996 306.4 43.7996C306.4 37.3996 313.6 30.9996 329.6 30.9996C343.2 30.9996 352.8 33.3996 360 36.5996L364 38.1996L370.4 6.9996Z" fill="#293688"/>
<path d="M439.2 5.40039C429.6 5.40039 422.4 6.2004 418.4 15.8004L358.4 149.4H401.6L409.6 125.4H460.8L465.6 149.4H504L470.4 5.40039H439.2V5.40039ZM420.8 101.4C423.2 94.2004 436.8 59.0004 436.8 59.0004C436.8 59.0004 440 50.2004 442.4 44.6004L444.8 58.2004C444.8 58.2004 452.8 94.2004 454.4 102.2H420.8V101.4Z" fill="#3C58BF"/>
<path d="M448.8 5.40039C439.2 5.40039 432 6.2004 428 15.8004L358.4 149.4H401.6L409.6 125.4H460.8L465.6 149.4H504L470.4 5.40039H448.8V5.40039ZM420.8 101.4C424 93.4004 436.8 59.0004 436.8 59.0004C436.8 59.0004 440 50.2004 442.4 44.6004L444.8 58.2004C444.8 58.2004 452.8 94.2004 454.4 102.2H420.8V101.4Z" fill="#293688"/>
<path d="M111.199 106.199L107.199 85.3992C99.9992 61.3992 76.7992 34.9992 51.1992 22.1992L87.1992 150.199H130.399L195.199 6.19922H151.999L111.199 106.199Z" fill="#3C58BF"/>
<path d="M111.199 106.199L107.199 85.3992C99.9992 61.3992 76.7992 34.9992 51.1992 22.1992L87.1992 150.199H130.399L195.199 6.19922H159.999L111.199 106.199Z" fill="#293688"/>
<path d="M0 5.40039L7.2 7.0004C58.4 19.0004 93.6 49.4004 107.2 85.4004L92.8 17.4004C90.4 7.80039 83.2 5.40039 74.4 5.40039H0V5.40039Z" fill="#FFBC00"/>
<path d="M0 5.40039C51.2 17.4004 93.6 48.6004 107.2 84.6004L93.6 27.8004C91.2 18.2004 83.2 12.6004 74.4 12.6004L0 5.40039Z" fill="#F7981D"/>
<path d="M0 5.40039C51.2 17.4004 93.6 48.6004 107.2 84.6004L97.6 53.4004C95.2 43.8004 92 34.2004 80.8 30.2004L0 5.40039Z" fill="#ED7C00"/>
<path d="M151.2 101.4L124 74.2004L111.2 104.6L108 84.6004C100.8 60.6004 77.6 34.2004 52 21.4004L88 149.4H131.2L151.2 101.4Z" fill="#051244"/>
<path d="M225.601 149.401L191.201 114.201L184.801 149.401H225.601Z" fill="#051244"/>
<path d="M317.6 99.8008C320.8 103.001 322.4 105.401 321.6 108.601C321.6 118.201 308.8 123.001 297.6 123.001C281.6 123.001 272.8 120.601 259.2 115.001L253.6 112.601L248 145.401C257.6 149.401 275.2 153.401 293.6 153.401C319.2 153.401 340 146.201 352 133.401L317.6 99.8008Z" fill="#051244"/>
<path d="M364 149.4H401.6L409.6 125.4H460.8L465.6 149.4H504L490.4 90.9996L442.4 44.5996L444.8 57.3996C444.8 57.3996 452.8 93.3996 454.4 101.4H420.8C424 93.3996 436.8 58.9996 436.8 58.9996C436.8 58.9996 440 50.1996 442.4 44.5996" fill="#051244"/>
</svg>
